{
  "name": "CampusSearchVw",
  "options": {
    "idInjection": false,
    "mysql": {
      "schema": "devScora",
      "table": "CAMPUS_SEARCH_VW"
    },
    "relations": {}
  },
  "properties": {
    "universityName": {
      "type": "String",
      "id": true,
      "length": 100,
      "precision": null,
      "scale": null,
      "mysql": {
        "columnName": "University_Name",
        "dataType": "varchar",
        "dataLength": 100,
        "dataPrecision": null,
        "dataScale": null,
        "nullable": "Y"
      }
    },
    "campusName": {
      "type": "String",
      "required": false,
      "length": 100,
      "precision": null,
      "scale": null,
      "mysql": {
        "columnName": "Campus_Name",
        "dataType": "varchar",
        "dataLength": 100,
        "dataPrecision": null,
        "dataScale": null,
        "nullable": "Y"
      }
    },
    "cityId": {
      "type": "Number",
      "required": false,
      "length": null,
      "precision": 10,
      "scale": 0,
      "mysql": {
        "columnName": "city_id",
        "dataType": "int",
        "dataLength": null,
        "dataPrecision": 10,
        "dataScale": 0,
        "nullable": "Y"
      }
    },
     "stateCode": {
      "type": "String",
      "required": false,
      "length": 16,
      "precision": null,
      "scale": null,
      "mysql": {
        "columnName": "state_code",
        "dataType": "varchar",
        "dataLength": 16,
        "dataPrecision": null,
        "dataScale": null,
        "nullable": "Y"
      }
    },
    "regionFlag": {
      "type": "String",
      "required": true,
      "length": 4,
      "precision": null,
      "scale": null,
      "mysql": {
        "columnName": "region_flag",
        "dataType": "varchar",
        "dataLength": 4,
        "dataPrecision": null,
        "dataScale": null,
        "nullable": "N"
      }
    },
    "tierValueId": {
      "type": "Number",
      "required": false,
      "length": null,
      "precision": 10,
      "scale": 0,
      "mysql": {
        "columnName": "tier_value_id",
        "dataType": "int",
        "dataLength": null,
        "dataPrecision": 10,
        "dataScale": 0,
        "nullable": "Y"
      }
    },
    "averageSalary": {
      "type": "String",
      "required": false,
      "length": null,
      "precision": 44,
      "scale": 10,
      "mysql": {
        "columnName": "average_salary",
        "dataType": "decimal",
        "dataLength": null,
        "dataPrecision": 44,
        "dataScale": 10,
        "nullable": "Y"
      }
    },
    "campusId": {
      "type": "Number",
      "length": null,
      "precision": 10,
      "scale": 0,
      "mysql": {
        "columnName": "campus_id",
        "dataType": "int",
        "dataLength": null,
        "dataPrecision": 10,
        "dataScale": 0,
        "nullable": "Y"
      }
    },
    "universityId": {
      "type": "Number",
      "required": false,
      "length": null,
      "precision": 10,
      "scale": 0,
      "mysql": {
        "columnName": "university_id",
        "dataType": "int",
        "dataLength": null,
        "dataPrecision": 10,
        "dataScale": 0,
        "nullable": "Y"
      }
    },
    "rank": {
      "type": "Number",
      "required": false,
      "length": null,
      "precision": 10,
      "scale": 0,
      "mysql": {
        "columnName": "rank",
        "dataType": "int",
        "dataLength": null,
        "dataPrecision": 10,
        "dataScale": 0,
        "nullable": "Y"
      }
    },
    "cityName": {
      "type": "String",
      "required": false,
      "length": 100,
      "precision": null,
      "scale": null,
      "mysql": {
        "columnName": "city_name",
        "dataType": "varchar",
        "dataLength": 100,
        "dataPrecision": null,
        "dataScale": null,
        "nullable": "Y"
      }
    },
    "establishedDate": {
      "type": "Date",
      "required": false,
      "length": null,
      "precision": null,
      "scale": null,
      "mysql": {
        "columnName": "established_date",
        "dataType": "date",
        "dataLength": null,
        "dataPrecision": null,
        "dataScale": null,
        "nullable": "Y"
      }
    },
    "searchName": {
      "type": "String",
      "required": false,
      "length": 200,
      "precision": null,
      "scale": null,
      "mysql": {
        "columnName": "search_name",
        "dataType": "varchar",
        "dataLength": 100,
        "dataPrecision": null,
        "dataScale": null,
        "nullable": "Y"
      }
    },
    "searchShortName": {
      "type": "String",
      "required": false,
      "length": 200,
      "precision": null,
      "scale": null,
      "mysql": {
        "columnName": "search_short_name",
        "dataType": "varchar",
        "dataLength": 50,
        "dataPrecision": null,
        "dataScale": null,
        "nullable": "Y"
      }
    }
  },
  "validations": [],
  "relations": {},
  "acls": [],
  "methods": {}
}
