{
  "name": "CampusAddress",
  "options": {
    "idInjection": false,
    "mysql": {
      "schema": "devScora",
      "table": "CAMPUS_ADDRESS"
    },
    "relations": {
      "campusDetails": {
        "model": "Campus",
        "type": "belongsTo",
        "foreignKey": "campusId"
      },
      "campusAddress": {
        "model": "Address",
        "type": "belongsTo",
        "foreignKey": "addressId"
      }
    }
  },
  "properties": {
    "campusId": {
      "type": "Number",
      "id": true,
      "length": null,
      "precision": 10,
      "scale": 0,
      "mysql": {
        "columnName": "campus_id",
        "dataType": "int",
        "dataLength": null,
        "dataPrecision": 10,
        "dataScale": 0,
        "nullable": "N"
      }
    },
    "primaryInd": {
      "type": "String",
      "required": false,
      "length": 1,
      "precision": null,
      "scale": null,
      "mysql": {
        "columnName": "primary_ind",
        "dataType": "varchar",
        "dataLength": 1,
        "dataPrecision": null,
        "dataScale": null,
        "nullable": "Y"
      }
    },
    "addressId": {
      "type": "Number",
      "id": 2,
      "required": true,
      "length": null,
      "precision": 10,
      "scale": 0,
      "mysql": {
        "columnName": "address_id",
        "dataType": "int",
        "dataLength": null,
        "dataPrecision": 10,
        "dataScale": 0,
        "nullable": "N"
      }
    }
  },
  "validations": [],
  "relations": {},
  "acls": [],
  "methods": {}
}
