{
  "name": "City",
  "options": {
    "idInjection": false,
    "mysql": {
      "schema": "devScora",
      "table": "CITY"
    },
    "relations": {}
  },
  "properties": {
    "cityId": {
      "type": "Number",
      "id": 1,
      "required": true,
      "length": null,
      "precision": 10,
      "scale": 0,
      "mysql": {
        "columnName": "city_id",
        "dataType": "int",
        "dataLength": null,
        "dataPrecision": 10,
        "dataScale": 0,
        "nullable": "N"
      }
    },
    "countryCode": {
      "type": "String",
      "required": true,
      "length": 16,
      "precision": null,
      "scale": null,
      "mysql": {
        "columnName": "country_code",
        "dataType": "varchar",
        "dataLength": 16,
        "dataPrecision": null,
        "dataScale": null,
        "nullable": "N"
      }
    },
    "stateCode": {
      "type": "String",
      "required": false,
      "length": 16,
      "precision": null,
      "scale": null,
      "mysql": {
        "columnName": "state_code",
        "dataType": "varchar",
        "dataLength": 16,
        "dataPrecision": null,
        "dataScale": null,
        "nullable": "Y"
      }
    },
    "cityName": {
      "type": "String",
      "required": false,
      "length": 100,
      "precision": null,
      "scale": null,
      "mysql": {
        "columnName": "city_name",
        "dataType": "varchar",
        "dataLength": 100,
        "dataPrecision": null,
        "dataScale": null,
        "nullable": "Y"
      }
    }
  },
  "validations": [],
  "relations": {},
  "acls": [],
  "methods": {}
}
