{
  "name": "CompensationPackageItem",
  "options": {
    "idInjection": false,
    "mysql": {
      "schema": "devScora",
      "table": "COMPENSATION_PACKAGE_ITEM"
    },
    "relations": {
      "compensationPackageItemCompany": {
        "model": "Company",
        "type": "belongsTo",
        "foreignKey": "companyId"
      },
      "compensationPackage": {
        "model": "CompensationPackage",
        "type": "belongsTo",
        "foreignKey": "compPackageId"
      },
      "compensationPackageItemLookupValue": {
        "model": "LookupValue",
        "type": "belongsTo",
        "foreignKey": "compPackageTypeValueId"
      }
    }
  },
  "properties": {
    "compPackageItemId": {
      "type": "Number",
      "id": true,
      "length": null,
      "precision": 10,
      "scale": 0,
      "mysql": {
        "columnName": "comp_package_item_id",
        "dataType": "int",
        "dataLength": null,
        "dataPrecision": 10,
        "dataScale": 0,
        "nullable": "N"
      }
    },
    "compPackageId": {
      "type": "Number",
      "required": true,
      "length": null,
      "precision": 10,
      "scale": 0,
      "mysql": {
        "columnName": "comp_package_id",
        "dataType": "int",
        "dataLength": null,
        "dataPrecision": 10,
        "dataScale": 0,
        "nullable": "N"
      }
    },
    "companyId": {
      "type": "Number",
      "required": true,
      "length": null,
      "precision": 10,
      "scale": 0,
      "mysql": {
        "columnName": "company_id",
        "dataType": "int",
        "dataLength": null,
        "dataPrecision": 10,
        "dataScale": 0,
        "nullable": "N"
      }
    },
    "compPackageItemName": {
      "type": "String",
      "required": true,
      "length": 50,
      "precision": null,
      "scale": null,
      "mysql": {
        "columnName": "comp_package_item_name",
        "dataType": "varchar",
        "dataLength": 50,
        "dataPrecision": null,
        "dataScale": null,
        "nullable": "N"
      }
    },
    "compPackageTypeValueId": {
      "type": "Number",
      "required": false,
      "length": null,
      "precision": 10,
      "scale": 0,
      "mysql": {
        "columnName": "comp_package_type_value_id",
        "dataType": "int",
        "dataLength": null,
        "dataPrecision": 10,
        "dataScale": 0,
        "nullable": "Y"
      }
    },
    "description": {
      "type": "String",
      "required": false,
      "length": 100,
      "precision": null,
      "scale": null,
      "mysql": {
        "columnName": "description",
        "dataType": "varchar",
        "dataLength": 100,
        "dataPrecision": null,
        "dataScale": null,
        "nullable": "Y"
      }
    },
    "currencyCode": {
      "type": "String",
      "required": false,
      "length": 16,
      "precision": null,
      "scale": null,
      "mysql": {
        "columnName": "currency_code",
        "dataType": "varchar",
        "dataLength": 16,
        "dataPrecision": null,
        "dataScale": null,
        "nullable": "Y"
      }
    },
    "amount": {
      "type": "String",
      "required": false,
      "length": null,
      "precision": 18,
      "scale": 6,
      "mysql": {
        "columnName": "amount",
        "dataType": "decimal",
        "dataLength": null,
        "dataPrecision": 18,
        "dataScale": 6,
        "nullable": "Y"
      }
    },
    "createDatetime": {
      "type": "Date",
      "required": false,
      "length": null,
      "precision": null,
      "scale": null,
      "mysql": {
        "columnName": "create_datetime",
        "dataType": "datetime",
        "dataLength": null,
        "dataPrecision": null,
        "dataScale": null,
        "nullable": "Y"
      }
    },
    "updateDatetime": {
      "type": "Date",
      "required": false,
      "length": null,
      "precision": null,
      "scale": null,
      "mysql": {
        "columnName": "update_datetime",
        "dataType": "datetime",
        "dataLength": null,
        "dataPrecision": null,
        "dataScale": null,
        "nullable": "Y"
      }
    },
    "createUserId": {
      "type": "Number",
      "required": true,
      "length": null,
      "precision": 10,
      "scale": 0,
      "mysql": {
        "columnName": "create_user_id",
        "dataType": "int",
        "dataLength": null,
        "dataPrecision": 10,
        "dataScale": 0,
        "nullable": "N"
      }
    },
    "updateUserId": {
      "type": "Number",
      "required": false,
      "length": null,
      "precision": 10,
      "scale": 0,
      "mysql": {
        "columnName": "update_user_id",
        "dataType": "int",
        "dataLength": null,
        "dataPrecision": 10,
        "dataScale": 0,
        "nullable": "Y"
      }
    }
  },
  "validations": [],
  "relations": {},
  "acls": [],
  "methods": {}
}
