{
  "name": "Country",
  "options": {
    "idInjection": false,
    "mysql": {
      "schema": "devScora",
      "table": "COUNTRY"
    },
    "relations": {}
  },
  "properties": {
    "countryCode": {
      "type": "String",
      "id": 1,
      "required": true,
      "length": 16,
      "precision": null,
      "scale": null,
      "mysql": {
        "columnName": "country_code",
        "dataType": "varchar",
        "dataLength": 16,
        "dataPrecision": null,
        "dataScale": null,
        "nullable": "N"
      }
    },
    "countryName": {
      "type": "String",
      "required": true,
      "length": 100,
      "precision": null,
      "scale": null,
      "mysql": {
        "columnName": "country_name",
        "dataType": "varchar",
        "dataLength": 100,
        "dataPrecision": null,
        "dataScale": null,
        "nullable": "N"
      }
    }
  },
  "validations": [],
  "relations": {},
  "acls": [],
  "methods": {}
}
