{
  "name": "NotificationDetails",
  "options": {
    "idInjection": false,
    "mysql": {
      "schema": "devScora",
      "table": "NOTIFICATION_DETAILS"
    },
    "relations": {
      "notificationEventDetails": {
        "model": "NotificationEvents",
        "type": "belongsTo",
        "foreignKey": "notificationEventId"
      }
    }
  },
  "properties": {
    "notificationDetailId": {
      "type": "Number",
      "id": true,
      "length": null,
      "precision": 10,
      "scale": 0,
      "mysql": {
        "columnName": "notification_detail_id",
        "dataType": "int",
        "dataLength": null,
        "dataPrecision": 10,
        "dataScale": 0,
        "nullable": "N"
      }
    },
    "notificationEventId": {
      "type": "Number",
      "required": false,
      "length": null,
      "precision": 10,
      "scale": 0,
      "mysql": {
        "columnName": "notification_event_id",
        "dataType": "int",
        "dataLength": null,
        "dataPrecision": 10,
        "dataScale": 0,
        "nullable": "Y"
      }
    },
    "roleTypeValueId": {
      "type": "Number",
      "required": false,
      "length": null,
      "precision": 10,
      "scale": 0,
      "mysql": {
        "columnName": "role_type_value_id",
        "dataType": "int",
        "dataLength": null,
        "dataPrecision": 10,
        "dataScale": 0,
        "nullable": "Y"
      }
    },
    "parentId": {
      "type": "Number",
      "required": true,
      "length": null,
      "precision": 10,
      "scale": 0,
      "mysql": {
        "columnName": "parent_id",
        "dataType": "int",
        "dataLength": null,
        "dataPrecision": 10,
        "dataScale": 0,
        "nullable": "N"
      }
    },
    "recipientId": {
      "type": "Number",
      "required": false,
      "length": null,
      "precision": 10,
      "scale": 0,
      "mysql": {
        "columnName": "recipient_id",
        "dataType": "int",
        "dataLength": null,
        "dataPrecision": 10,
        "dataScale": 0,
        "nullable": "Y"
      }
    },
    "notificationDismissedInd": {
      "type": "String",
      "required": false,
      "length": 1,
      "precision": null,
      "scale": null,
      "mysql": {
        "columnName": "notification_dismissed_ind",
        "dataType": "varchar",
        "dataLength": 1,
        "dataPrecision": null,
        "dataScale": null,
        "nullable": "Y"
      }
    },"notificationReadInd": {
      "type": "String",
      "required": false,
      "length": 1,
      "precision": null,
      "scale": null,
      "mysql": {
        "columnName": "notification_read_ind",
        "dataType": "varchar",
        "dataLength": 1,
        "dataPrecision": null,
        "dataScale": null,
        "nullable": "Y"
      }
    },
    "createDatetime": {
      "type": "Date",
      "required": true,
      "length": null,
      "precision": null,
      "scale": null,
      "mysql": {
        "columnName": "create_datetime",
        "dataType": "datetime",
        "dataLength": null,
        "dataPrecision": null,
        "dataScale": null,
        "nullable": "N"
      }
    },
    "readDatetime": {
      "type": "Date",
      "length": null,
      "precision": null,
      "scale": null,
      "mysql": {
        "columnName": "read_datetime",
        "dataType": "datetime",
        "dataLength": null,
        "dataPrecision": null,
        "dataScale": null,
        "nullable": "Y"
      }
    },
    "dismissDatetime": {
      "type": "Date",
      "length": null,
      "precision": null,
      "scale": null,
      "mysql": {
        "columnName": "dismiss_datetime",
        "dataType": "datetime",
        "dataLength": null,
        "dataPrecision": null,
        "dataScale": null,
        "nullable": "Y"
      }
    }
  }
}