{
  "name": "Program",
  "options": {
    "idInjection": false,
    "mysql": {
      "schema": "devScora",
      "table": "PROGRAM"
    },
    "relations": {
      "campusDetails": {
        "model": "Campus",
        "type": "belongsTo",
        "foreignKey": "campusId"
      },
      "departmentDetails": {
        "model": "Department",
        "type": "belongsTo",
        "foreignKey": "departmentId"
      },
      "programTypeValueLookupValue": {
        "model": "LookupValue",
        "type": "belongsTo",
        "foreignKey": "programTypeValueId"
      },
      "programClassValueLookupValue": {
        "model": "LookupValue",
        "type": "belongsTo",
        "foreignKey": "programClassValueId"
      },
      "programCatValueLookupValue": {
        "model": "LookupValue",
        "type": "belongsTo",
        "foreignKey": "programCatValueId"
      },
      "programMajorValueLookupValue": {
        "model": "LookupValue",
        "type": "belongsTo",
        "foreignKey": "programMajorValueId"
      }
    }
  },
  "properties": {
    "programId": {
      "type": "Number",
      "id": true,
      "length": null,
      "precision": 10,
      "scale": 0,
      "mysql": {
        "columnName": "program_id",
        "dataType": "int",
        "dataLength": null,
        "dataPrecision": 10,
        "dataScale": 0,
        "nullable": "N"
      }
    },
    "campusId": {
      "type": "Number",
      "required": true,
      "length": null,
      "precision": 10,
      "scale": 0,
      "mysql": {
        "columnName": "campus_id",
        "dataType": "int",
        "dataLength": null,
        "dataPrecision": 10,
        "dataScale": 0,
        "nullable": "N"
      }
    },
    "departmentId": {
      "type": "Number",
      "required": true,
      "length": null,
      "precision": 10,
      "scale": 0,
      "mysql": {
        "columnName": "department_id",
        "dataType": "int",
        "dataLength": null,
        "dataPrecision": 10,
        "dataScale": 0,
        "nullable": "N"
      }
    },
    "programName": {
      "type": "String",
      "required": true,
      "length": 50,
      "precision": null,
      "scale": null,
      "mysql": {
        "columnName": "program_name",
        "dataType": "varchar",
        "dataLength": 50,
        "dataPrecision": null,
        "dataScale": null,
        "nullable": "N"
      }
    },
    "description": {
      "type": "String",
      "required": false,
      "length": 2000,
      "precision": null,
      "scale": null,
      "mysql": {
        "columnName": "description",
        "dataType": "varchar",
        "dataLength": 2000,
        "dataPrecision": null,
        "dataScale": null,
        "nullable": "Y"
      }
    },
    "programTypeValueId": {
      "type": "Number",
      "required": true,
      "length": null,
      "precision": 10,
      "scale": 0,
      "mysql": {
        "columnName": "program_type_value_id",
        "dataType": "int",
        "dataLength": null,
        "dataPrecision": 10,
        "dataScale": 0,
        "nullable": "N"
      }
    },
    "programClassValueId": {
      "type": "Number",
      "required": true,
      "length": null,
      "precision": 10,
      "scale": 0,
      "mysql": {
        "columnName": "program_class_value_id",
        "dataType": "int",
        "dataLength": null,
        "dataPrecision": 10,
        "dataScale": 0,
        "nullable": "N"
      }
    },
    "programCatValueId": {
      "type": "Number",
      "required": true,
      "length": null,
      "precision": 10,
      "scale": 0,
      "mysql": {
        "columnName": "program_cat_value_id",
        "dataType": "int",
        "dataLength": null,
        "dataPrecision": 10,
        "dataScale": 0,
        "nullable": "N"
      }
    },
    "numberOfStudents": {
      "type": "Number",
      "required": false,
      "length": null,
      "precision": 10,
      "scale": 0,
      "mysql": {
        "columnName": "number_of_students",
        "dataType": "int",
        "dataLength": null,
        "dataPrecision": 10,
        "dataScale": 0,
        "nullable": "Y"
      }
    },
    "startDate": {
      "type": "Date",
      "required": false,
      "length": null,
      "precision": null,
      "scale": null,
      "mysql": {
        "columnName": "start_date",
        "dataType": "date",
        "dataLength": null,
        "dataPrecision": null,
        "dataScale": null,
        "nullable": "Y"
      }
    },
    "createDatetime": {
      "type": "Date",
      "required": true,
      "length": null,
      "precision": null,
      "scale": null,
      "mysql": {
        "columnName": "create_datetime",
        "dataType": "datetime",
        "dataLength": null,
        "dataPrecision": null,
        "dataScale": null,
        "nullable": "N"
      }
    },
    "updateDatetime": {
      "type": "Date",
      "required": true,
      "length": null,
      "precision": null,
      "scale": null,
      "mysql": {
        "columnName": "update_datetime",
        "dataType": "datetime",
        "dataLength": null,
        "dataPrecision": null,
        "dataScale": null,
        "nullable": "N"
      }
    },
    "createUserId": {
      "type": "Number",
      "required": true,
      "length": null,
      "precision": 10,
      "scale": 0,
      "mysql": {
        "columnName": "create_user_id",
        "dataType": "int",
        "dataLength": null,
        "dataPrecision": 10,
        "dataScale": 0,
        "nullable": "N"
      }
    },
    "updateUserId": {
      "type": "Number",
      "required": true,
      "length": null,
      "precision": 10,
      "scale": 0,
      "mysql": {
        "columnName": "update_user_id",
        "dataType": "int",
        "dataLength": null,
        "dataPrecision": 10,
        "dataScale": 0,
        "nullable": "N"
      }
    },
    "programMajorValueId": {
      "type": "Number",
      "required": true,
      "length": null,
      "precision": 10,
      "scale": 0,
      "mysql": {
        "columnName": "program_major_value_id",
        "dataType": "int",
        "dataLength": null,
        "dataPrecision": 10,
        "dataScale": 0,
        "nullable": "N"
      }
    },
    "offCampusInd": {
      "type": "String",
      "required": false,
      "length": 1,
      "precision": null,
      "scale": null,
      "mysql": {
        "columnName": "off_campus_ind",
        "dataType": "varchar",
        "dataLength": 1,
        "dataPrecision": null,
        "dataScale": null,
        "nullable": "Y"
      }
    }
  },
  "validations": [],
  "relations": {},
  "acls": [],
  "methods": {}
}
