{
  "name": "StudentAttributes",
  "options": {
    "idInjection": false,
    "mysql": {
      "schema": "devScora",
      "table": "STUDENT_ATTRIBUTES"
    },
    "relations": {
      "studentAttributesIbfk1rel": {
        "model": "Student",
        "type": "belongsTo",
        "foreignKey": "studentId"
      },
      "studentAttributesCatDetails": {
        "model": "LookupValue",
        "type": "belongsTo",
        "foreignKey": "attachCatValueId"
      },
      "studentAttributesTypeDetails": {
        "model": "LookupValue",
        "type": "belongsTo",
        "foreignKey": "attachTypeValueId"
      }
    }
  },
  "properties": {
    "studentAttributeId": {
      "type": "Number",
      "id": true,
      "length": null,
      "precision": 10,
      "scale": 0,
      "mysql": {
        "columnName": "student_attribute_id",
        "dataType": "int",
        "dataLength": null,
        "dataPrecision": 10,
        "dataScale": 0,
        "nullable": "N"
      }
    },
    "studentId": {
      "type": "Number",
      "required": true,
      "length": null,
      "precision": 10,
      "scale": 0,
      "mysql": {
        "columnName": "student_id",
        "dataType": "int",
        "dataLength": null,
        "dataPrecision": 10,
        "dataScale": 0,
        "nullable": "N"
      }
    },
    "attachCatValueId": {
      "type": "Number",
      "required": true,
      "length": null,
      "precision": 10,
      "scale": 0,
      "mysql": {
        "columnName": "attach_cat_value_id",
        "dataType": "int",
        "dataLength": null,
        "dataPrecision": 10,
        "dataScale": 0,
        "nullable": "N"
      }
    },
    "attachTypeValueId": {
      "type": "Number",
      "required": true,
      "length": null,
      "precision": 10,
      "scale": 0,
      "mysql": {
        "columnName": "attach_type_value_id",
        "dataType": "int",
        "dataLength": null,
        "dataPrecision": 10,
        "dataScale": 0,
        "nullable": "N"
      }
    },
    "attachLocation": {
      "type": "String",
      "required": true,
      "length": 200,
      "precision": null,
      "scale": null,
      "mysql": {
        "columnName": "attach_location",
        "dataType": "varchar",
        "dataLength": 200,
        "dataPrecision": null,
        "dataScale": null,
        "nullable": "N"
      }
    },
    "createDatetime": {
      "type": "Date",
      "required": true,
      "length": null,
      "precision": null,
      "scale": null,
      "mysql": {
        "columnName": "create_datetime",
        "dataType": "datetime",
        "dataLength": null,
        "dataPrecision": null,
        "dataScale": null,
        "nullable": "N"
      }
    },
    "updateDatetime": {
      "type": "Date",
      "required": true,
      "length": null,
      "precision": null,
      "scale": null,
      "mysql": {
        "columnName": "update_datetime",
        "dataType": "datetime",
        "dataLength": null,
        "dataPrecision": null,
        "dataScale": null,
        "nullable": "N"
      }
    },
    "createUserId": {
      "type": "Number",
      "required": true,
      "length": null,
      "precision": 10,
      "scale": 0,
      "mysql": {
        "columnName": "create_user_id",
        "dataType": "int",
        "dataLength": null,
        "dataPrecision": 10,
        "dataScale": 0,
        "nullable": "N"
      }
    },
    "updateUserId": {
      "type": "Number",
      "required": true,
      "length": null,
      "precision": 10,
      "scale": 0,
      "mysql": {
        "columnName": "update_user_id",
        "dataType": "int",
        "dataLength": null,
        "dataPrecision": 10,
        "dataScale": 0,
        "nullable": "N"
      }
    }
  },
  "validations": [],
  "relations": {},
  "acls": [],
  "methods": {}
}
