{
    "name": "StudentsAssessmentUploadWork",
    "options": {
      "idInjection": false,
      "mysql": {
        "schema": "devScora",
        "table": "STUDENTS_ASSESSMENT_UPLOAD_WORK"
      },
      "relations": {
        
      }
    },
    "properties": {
      "rowNumber": {
        "type": "Number",
        "id":1,
        "required": false,
        "length": null,
        "precision": 10,
        "scale": 0,
        "mysql": {
          "columnName": "row_number",
          "dataType": "int",
          "dataLength": null,
          "dataPrecision": 10,
          "dataScale": 0,
          "nullable": "Y"
        }
      },
      "admissionNo": {
        "type": "String",
        "required": false,
        "length": 50,
        "precision": null,
        "scale": null,
        "mysql": {
          "columnName": "admission_no",
          "dataType": "varchar",
          "dataLength": 50,
          "dataPrecision": null,
          "dataScale": null,
          "nullable": "Y"
        }
      },
      "score": {
        "type": "Number",
        "required": false,
        "length": null,
        "precision": 10,
        "scale": 0,
        "mysql": {
          "columnName": "score",
          "dataType": "int",
          "dataLength": null,
          "dataPrecision": 10,
          "dataScale": 0,
          "nullable": "Y"
        }
      },
      "programUnitTypeValueId": {
        "type": "Number",
        "required": false,
        "length": null,
        "precision": 10,
        "scale": 0,
        "mysql": {
          "columnName": "program_unit_type_value_id",
          "dataType": "int",
          "dataLength": null,
          "dataPrecision": 10,
          "dataScale": 0,
          "nullable": "Y"
        }
      },
      "departmentId": {
        "type": "Number",
        "required": false,
        "length": null,
        "precision": 10,
        "scale": 0,
        "mysql": {
          "columnName": "department_id",
          "dataType": "int",
          "dataLength": null,
          "dataPrecision": 10,
          "dataScale": 0,
          "nullable": "Y"
        }
      },
      "programId": {
        "type": "Number",
        "required": false,
        "length": null,
        "precision": 10,
        "scale": 0,
        "mysql": {
          "columnName": "program_id",
          "dataType": "int",
          "dataLength": null,
          "dataPrecision": 10,
          "dataScale": 0,
          "nullable": "Y"
        }
      },
      "error": {
        "type": "String",
        "required": false,
        "length": 500,
        "precision": null,
        "scale": null,
        "mysql": {
          "columnName": "error",
          "dataType": "varchar",
          "dataLength": 500,
          "dataPrecision": null,
          "dataScale": null,
          "nullable": "Y"
        }
      }
    },
    "validations": [],
    "acls": [],
    "methods": {}
  }