{
  "name": "StudentInterests",
  "options": {
    "idInjection": false,
    "mysql": {
      "schema": "devScora",
      "table": "STUDENT_INTERESTS"
    },
    "relations": {
      "studentInterestsIbfk1rel": {
        "model": "Student",
        "type": "belongsTo",
        "foreignKey": "studentId"
      },
      "studentInterest": {
        "model": "LookupValue",
        "type": "belongsTo",
        "foreignKey": "interestTypeValueId"
      }
    }
  },
  "properties": {
    "studentId": {
      "type": "Number",
      "id": 1,
      "required": true,
      "length": null,
      "precision": 10,
      "scale": 0,
      "mysql": {
        "columnName": "student_id",
        "dataType": "int",
        "dataLength": null,
        "dataPrecision": 10,
        "dataScale": 0,
        "nullable": "N"
      }
    },
    "interestTypeValueId": {
      "type": "Number",
      "id": 2,
      "required": true,
      "length": null,
      "precision": 10,
      "scale": 0,
      "mysql": {
        "columnName": "interest_type_value_id",
        "dataType": "int",
        "dataLength": null,
        "dataPrecision": 10,
        "dataScale": 0,
        "nullable": "N"
      }
    }
  },
  "validations": [],
  "relations": {},
  "acls": [],
  "methods": {}
}
